dump.vcd
$date
	Wed Mar 13 14:40:22 2024
$end
$version
	Icarus Verilog
$end
$timescale
	1ns
$end
$scope module top_tb $end
$scope module uut $end
$scope module keyboard $end
$var reg 8 ! digit [7:0] $end
$upscope $end
$upscope $end
$upscope $end
$scope module top_tb $end
$scope module uut $end
$scope module keyboard $end
$var wire 7 " digit_sft [6:0] $end
$upscope $end
$upscope $end
$upscope $end
$scope module top_tb $end
$scope module uut $end
$var wire 1 # clk_i $end
$upscope $end
$upscope $end
$scope module top_tb $end
$scope module uut $end
$var wire 1 $ rst_i $end
$upscope $end
$upscope $end
$scope module top_tb $end
$scope module uut $end
$var wire 1 % ps2_clk_i $end
$upscope $end
$upscope $end
$scope module top_tb $end
$scope module uut $end
$var wire 1 & ps2_data_i $end
$upscope $end
$upscope $end
$scope module top_tb $end
$scope module uut $end
$var wire 4 ' digit_o [3:0] $end
$upscope $end
$upscope $end
$scope module top_tb $end
$scope module uut $end
$var wire 1 ( new_data_o $end
$upscope $end
$upscope $end
$scope module top_tb $end
$scope module uut $end
$var reg 4 ) a1 [3:0] $end
$upscope $end
$upscope $end
$scope module top_tb $end
$scope module uut $end
$var reg 4 * a10 [3:0] $end
$upscope $end
$upscope $end
$scope module top_tb $end
$scope module uut $end
$var reg 4 + a100 [3:0] $end
$upscope $end
$upscope $end
$scope module top_tb $end
$scope module uut $end
$var reg 4 , a1000 [3:0] $end
$upscope $end
$upscope $end
$scope module top_tb $end
$scope module uut $end
$var reg 4 - b1 [3:0] $end
$upscope $end
$upscope $end
$scope module top_tb $end
$scope module uut $end
$var reg 4 . b10 [3:0] $end
$upscope $end
$upscope $end
$scope module top_tb $end
$scope module uut $end
$var reg 4 / b100 [3:0] $end
$upscope $end
$upscope $end
$scope module top_tb $end
$scope module uut $end
$var reg 4 0 b1000 [3:0] $end
$upscope $end
$upscope $end
$scope module top_tb $end
$scope module uut $end
$var wire 4 1 sum1 [3:0] $end
$upscope $end
$upscope $end
$scope module top_tb $end
$scope module uut $end
$var wire 4 2 sum10 [3:0] $end
$upscope $end
$upscope $end
$scope module top_tb $end
$scope module uut $end
$var wire 4 3 sum100 [3:0] $end
$upscope $end
$upscope $end
$scope module top_tb $end
$scope module uut $end
$var wire 4 4 sum1000 [3:0] $end
$upscope $end
$upscope $end
$scope module top_tb $end
$scope module uut $end
$var wire 4 5 diff1 [3:0] $end
$upscope $end
$upscope $end
$scope module top_tb $end
$scope module uut $end
$var wire 4 6 diff10 [3:0] $end
$upscope $end
$upscope $end
$scope module top_tb $end
$scope module uut $end
$var wire 4 7 diff100 [3:0] $end
$upscope $end
$upscope $end
$scope module top_tb $end
$scope module uut $end
$var wire 4 8 diff1000 [3:0] $end
$upscope $end
$upscope $end
$scope module top_tb $end
$scope module uut $end
$var reg 4 9 dig1 [3:0] $end
$upscope $end
$upscope $end
$scope module top_tb $end
$scope module uut $end
$var reg 4 : dig10 [3:0] $end
$upscope $end
$upscope $end
$scope module top_tb $end
$scope module uut $end
$var reg 4 ; dig100 [3:0] $end
$upscope $end
$upscope $end
$scope module top_tb $end
$scope module uut $end
$var reg 4 < dig1000 [3:0] $end
$upscope $end
$upscope $end
$scope module top_tb $end
$var reg 1 # clk_i $end
$upscope $end
$scope module top_tb $end
$var reg 1 $ rst_i $end
$upscope $end
$scope module top_tb $end
$var reg 1 % ps2_clk_i $end
$upscope $end
$scope module top_tb $end
$var reg 1 & ps2_data_i $end
$upscope $end
$enddefinitions $end
$comment Show the parameter values. $end
$dumpall
$end
#0
$dumpvars
bx <
bx ;
bx :
bx 9
bx 8
bx 7
bx 6
bx 5
bx 4
bx 3
bx 2
bx 1
bx 0
bx /
bx .
bx -
bx ,
bx +
bx *
bx )
x(
bx '
0&
1%
0$
0#
bx "
bx !
$end
#1
b0 4
b0 8
b0 3
b0 7
b0 2
b0 6
b0 1
b0 5
b0 "
0(
b0 '
b0 !
b0 0
b0 /
b0 .
b0 -
b0 ,
b0 +
b0 *
b0 )
1#
1$
#2
0#
0$
#3
1#
#4
0#
#5
1#
#6
0#
#7
1#
#8
0#
#9
1#
#10
0#
#11
1#
#12
0#
0%
#13
1#
#14
0#
#15
1#
#16
0#
#17
1#
1%
#18
0#
#19
1#
#20
0#
#21
1#
#22
0#
0%
#23
1#
#24
0#
#25
1#
#26
0#
#27
1#
1&
1%
#28
0#
#29
1#
#30
0#
#31
1#
#32
0#
0%
#33
1#
#34
0#
#35
b1000000 "
b10000000 !
1#
#36
0#
#37
1#
1%
#38
0#
#39
1#
#40
0#
#41
1#
#42
0#
0%
#43
1#
#44
0#
#45
b1100000 "
b11000000 !
1#
#46
0#
#47
1#
0&
1%
#48
0#
#49
1#
#50
0#
#51
1#
#52
0#
0%
#53
1#
#54
0#
#55
b110000 "
b1100000 !
1#
#56
0#
#57
1#
1%
#58
0#
#59
1#
#60
0#
#61
1#
#62
0#
0%
#63
1#
#64
0#
#65
b11000 "
b110000 !
1#
#66
0#
#67
1#
1%
#68
0#
#69
1#
#70
0#
#71
1#
#72
0#
0%
#73
1#
#74
0#
#75
b1100 "
b11000 !
1#
#76
0#
#77
1#
1&
1%
#78
0#
#79
1#
#80
0#
#81
1#
#82
0#
0%
#83
1#
#84
0#
#85
b1000110 "
b10001100 !
1#
#86
0#
#87
1#
0&
1%
#88
0#
#89
1#
#90
0#
#91
1#
#92
0#
0%
#93
1#
#94
0#
#95
b100011 "
b1000110 !
1#
#96
0#
#97
1#
1&
1%
#98
0#
#99
1#
#100
0#
#101
1#
#102
0#
0%
#103
1#
#104
0#
#105
1#
#106
0#
#107
1#
1%
#108
0#
#109
1#
#110
0#
#111
1#
#112
0#
0%
#113
1#
#114
0#
#115
1(
b1001 '
1#
#116
0#
#117
b1001 1
b1001 5
0(
b1001 9
b0 :
b0 ;
b0 <
b1001 )
1#
1%
