subtractor_tb.vcd
$date
	Wed Mar 13 10:16:39 2024
$end
$version
	Icarus Verilog
$end
$timescale
	1ns
$end
$scope module adder_tb $end
$var reg 4 ! a_i [3:0] $end
$upscope $end
$scope module adder_tb $end
$var reg 4 " b_i [3:0] $end
$upscope $end
$scope module adder_tb $end
$var reg 1 # borrow_i $end
$upscope $end
$scope module adder_tb $end
$var wire 4 $ sum_o [3:0] $end
$upscope $end
$scope module adder_tb $end
$var wire 1 % borrow_o $end
$upscope $end
$enddefinitions $end
$comment Show the parameter values. $end
$dumpall
$end
#0
$dumpvars
0%
b0 $
0#
b0 "
b0 !
$end
#2
1%
b1001 $
b1 "
#3
b1000 $
b10 "
#4
b111 $
b11 "
#5
b110 $
b100 "
#6
b101 $
b101 "
#7
b100 $
b110 "
#8
b11 $
b111 "
#9
b10 $
b1000 "
#10
b1 $
b1001 "
#11
0%
b0 "
b1 !
#12
b0 $
b1 "
#13
1%
b1001 $
b10 "
#14
b1000 $
b11 "
#15
b111 $
b100 "
#16
b110 $
b101 "
#17
b101 $
b110 "
#18
b100 $
b111 "
#19
b11 $
b1000 "
#20
b10 $
b1001 "
#21
0%
b0 "
b10 !
#22
b1 $
b1 "
#23
b0 $
b10 "
#24
1%
b1001 $
b11 "
#25
b1000 $
b100 "
#26
b111 $
b101 "
#27
b110 $
b110 "
#28
b101 $
b111 "
#29
b100 $
b1000 "
#30
b11 $
b1001 "
#31
0%
b0 "
b11 !
#32
b10 $
b1 "
#33
b1 $
b10 "
#34
b0 $
b11 "
#35
1%
b1001 $
b100 "
#36
b1000 $
b101 "
#37
b111 $
b110 "
#38
b110 $
b111 "
#39
b101 $
b1000 "
#40
b100 $
b1001 "
#41
0%
b0 "
b100 !
#42
b11 $
b1 "
#43
b10 $
b10 "
#44
b1 $
b11 "
#45
b0 $
b100 "
#46
1%
b1001 $
b101 "
#47
b1000 $
b110 "
#48
b111 $
b111 "
#49
b110 $
b1000 "
#50
b101 $
b1001 "
#51
0%
b0 "
b101 !
#52
b100 $
b1 "
#53
b11 $
b10 "
#54
b10 $
b11 "
#55
b1 $
b100 "
#56
b0 $
b101 "
#57
1%
b1001 $
b110 "
#58
b1000 $
b111 "
#59
b111 $
b1000 "
#60
b110 $
b1001 "
#61
0%
b0 "
b110 !
#62
b101 $
b1 "
#63
b100 $
b10 "
#64
b11 $
b11 "
#65
b10 $
b100 "
#66
b1 $
b101 "
#67
b0 $
b110 "
#68
1%
b1001 $
b111 "
#69
b1000 $
b1000 "
#70
b111 $
b1001 "
#71
0%
b0 "
b111 !
#72
b110 $
b1 "
#73
b101 $
b10 "
#74
b100 $
b11 "
#75
b11 $
b100 "
#76
b10 $
b101 "
#77
b1 $
b110 "
#78
b0 $
b111 "
#79
1%
b1001 $
b1000 "
#80
b1000 $
b1001 "
#81
0%
b0 "
b1000 !
#82
b111 $
b1 "
#83
b110 $
b10 "
#84
b101 $
b11 "
#85
b100 $
b100 "
#86
b11 $
b101 "
#87
b10 $
b110 "
#88
b1 $
b111 "
#89
b0 $
b1000 "
#90
1%
b1001 $
b1001 "
#91
0%
b0 "
b1001 !
#92
b1000 $
b1 "
#93
b111 $
b10 "
#94
b110 $
b11 "
#95
b101 $
b100 "
#96
b100 $
b101 "
#97
b11 $
b110 "
#98
b10 $
b111 "
#99
b1 $
b1000 "
#100
b0 $
b1001 "
#101
1%
b1001 $
1#
b0 "
b0 !
#102
b1000 $
b1 "
#103
b111 $
b10 "
#104
b110 $
b11 "
#105
b101 $
b100 "
#106
b100 $
b101 "
#107
b11 $
b110 "
#108
b10 $
b111 "
#109
b1 $
b1000 "
#110
b0 $
b1001 "
#111
0%
b0 "
b1 !
#112
1%
b1001 $
b1 "
#113
b1000 $
b10 "
#114
b111 $
b11 "
#115
b110 $
b100 "
#116
b101 $
b101 "
#117
b100 $
b110 "
#118
b11 $
b111 "
#119
b10 $
b1000 "
#120
b1 $
b1001 "
#121
0%
b0 "
b10 !
#122
b0 $
b1 "
#123
1%
b1001 $
b10 "
#124
b1000 $
b11 "
#125
b111 $
b100 "
#126
b110 $
b101 "
#127
b101 $
b110 "
#128
b100 $
b111 "
#129
b11 $
b1000 "
#130
b10 $
b1001 "
#131
0%
b0 "
b11 !
#132
b1 $
b1 "
#133
b0 $
b10 "
#134
1%
b1001 $
b11 "
#135
b1000 $
b100 "
#136
b111 $
b101 "
#137
b110 $
b110 "
#138
b101 $
b111 "
#139
b100 $
b1000 "
#140
b11 $
b1001 "
#141
0%
b0 "
b100 !
#142
b10 $
b1 "
#143
b1 $
b10 "
#144
b0 $
b11 "
#145
1%
b1001 $
b100 "
#146
b1000 $
b101 "
#147
b111 $
b110 "
#148
b110 $
b111 "
#149
b101 $
b1000 "
#150
b100 $
b1001 "
#151
0%
b0 "
b101 !
#152
b11 $
b1 "
#153
b10 $
b10 "
#154
b1 $
b11 "
#155
b0 $
b100 "
#156
1%
b1001 $
b101 "
#157
b1000 $
b110 "
#158
b111 $
b111 "
#159
b110 $
b1000 "
#160
b101 $
b1001 "
#161
0%
b0 "
b110 !
#162
b100 $
b1 "
#163
b11 $
b10 "
#164
b10 $
b11 "
#165
b1 $
b100 "
#166
b0 $
b101 "
#167
1%
b1001 $
b110 "
#168
b1000 $
b111 "
#169
b111 $
b1000 "
#170
b110 $
b1001 "
#171
0%
b0 "
b111 !
#172
b101 $
b1 "
#173
b100 $
b10 "
#174
b11 $
b11 "
#175
b10 $
b100 "
#176
b1 $
b101 "
#177
b0 $
b110 "
#178
1%
b1001 $
b111 "
#179
b1000 $
b1000 "
#180
b111 $
b1001 "
#181
0%
b0 "
b1000 !
#182
b110 $
b1 "
#183
b101 $
b10 "
#184
b100 $
b11 "
#185
b11 $
b100 "
#186
b10 $
b101 "
#187
b1 $
b110 "
#188
b0 $
b111 "
#189
1%
b1001 $
b1000 "
#190
b1000 $
b1001 "
#191
0%
b0 "
b1001 !
#192
b111 $
b1 "
#193
b110 $
b10 "
#194
b101 $
b11 "
#195
b100 $
b100 "
#196
b11 $
b101 "
#197
b10 $
b110 "
#198
b1 $
b111 "
#199
b0 $
b1000 "
#200
1%
b1001 $
b1001 "
